SemaforosBin/MipsSim.vcd
$date
  Thu Oct 20 18:10:47 2011
$end
$version
  GHDL v0
$end
$timescale
  1 fs
$end
$var reg 32 ! address[31:0] $end
$var reg 1 " reset $end
$var reg 32 # data_out[31:0] $end
$var reg 1 $ req $end
$var reg 1 % clock $end
$scope module u_semaphores $end
$var reg 32 & address[31:0] $end
$var reg 1 ' reset $end
$var reg 32 ( data_out[31:0] $end
$var reg 1 ) req $end
$var reg 1 * clock $end
$var integer 32 + index_size $end
$var reg 10 , internal_index[9:0] $end
$comment semaphores_table is not handled $end
$var reg 2 - operation[1:0] $end
$var reg 10 . sem_index[9:0] $end
$upscope $end
$enddefinitions $end
#0
b11111111111111111111110000000000 !
0"
bUUUUUUUUUUUUUUUUUUUUUUUUUUUUUUUU #
1$
0%
b11111111111111111111110000000000 &
0'
bUUUUUUUUUUUUUUUUUUUUUUUUUUUUUUUU (
1)
0*
b1001 +
bUUUUUUUUUU ,
bUU -
bUUUUUUUUUU .
#5000000
1"
1'
#20000000
1%
1*
b0000000000 ,
#40000000
b11111111111111111111010000000000 !
0%
b11111111111111111111010000000000 &
0*
#60000000
1%
1*
#70000000
0"
0'
#80000000
b11111111111111111111100000000000 !
0%
b11111111111111111111100000000000 &
0*
#100000000
1%
1*
b10 -
b0000000000 .
#120000000
b11111111111111111111010000000000 !
0%
b11111111111111111111010000000000 &
0*
#140000000
b11111111111111111111111111111111 #
1%
b11111111111111111111111111111111 (
1*
b01 -
#160000000
b00000000000000000000000000000000 !
0%
b00000000000000000000000000000000 &
0*
